Endpoint is :https://reqres.in/api/users

Request Body is :{
    "name": "Abhishek",
    "job": "QAMgr"
}

Response Body is :{"name":"Abhishek","job":"QAMgr","id":"998","createdAt":"2024-01-04T06:58:57.004Z"}